{
  "pages": [
    {
      "id": "Page1",
      "isDefault": true
    },
    {
      "id": "Page2",
      "isDefault": false
    },
    {
      "id": "Page3",
      "isDefault": false
    },
    {
      "id": "Page4",
      "isDefault": false
    },
    {
      "id": "Page5",
      "isDefault": false
    }
  ],
  "viewMode": false,
  "appIsExample": false,
  "unreadCommentThreads": 0,
  "color": "#C7F3E3",
  "icon": "dollar",
  "evaluationVersion": 2,
  "applicationVersion": 2,
  "isManualUpdate": false,
  "deleted": false
}